^C:\USERS\АНАСТАСИЯ\SOURCE\REPOS\HOMEWORK19\DEBUG\HOMEWORK19.OBJ
C:\USERS\Анастасия\SOURCE\REPOS\HOMEWORK19\DEBUG\HOMEWORK19.EXE
C:\USERS\Анастасия\SOURCE\REPOS\HOMEWORK19\DEBUG\HOMEWORK19.ILK
C:\USERS\АНАСТАСИЯ\SOURCE\REPOS\HOMEWORK19\DEBUG\HOMEWORK19.PDB
